! Names,S1,S2,S3,% N = 1000
! Target,"""no""","""maybe""","""yes""",% µ: 0.2 0.7 1.2
"""no""",409,248,151,% c: 0.5
"""maybe""",458,353,259,% c: 1.3
"""yes""",132,399,590,% > 1.3
Total,999,1000,1000,NaN
NaN,NaN,NaN,NaN,NaN
#gauss,NaN,NaN,NaN,NaN
#poisson,NaN,NaN,NaN,NaN
